hw10/hw10.vcd
$comment
Copyright (C) 1991-2010 Altera Corporation
Your use of Altera Corporation's design tools, logic functions 
and other software and tools, and its AMPP partner logic 
functions, and any output files from any of the foregoing 
(including device programming or simulation files), and any 
associated documentation or information are expressly subject 
to the terms and conditions of the Altera Program License 
Subscription Agreement, Altera MegaCore Function License 
Agreement, or other applicable license agreement, including, 
without limitation, that your use is for the sole purpose of 
programming logic devices manufactured by Altera and sold by 
Altera or its authorized distributors.  Please refer to the 
applicable agreement for further details.
$end

$date 
  07/30/2018 14:15:26 
$end
$version 
 QUARTUS_VCD_EXPORT 1.0 
$end
$timescale
  1 ps
$end
$scope module D_latch $end
$var reg 1 ! D $end
$var reg 1 " clk $end
$var reg 1 # Q $end
$var reg 1 $ _Q $end
$upscope $end
$enddefinitions $end
#0
$dumpvars
1!
1"
1#
0$
$end
#10000
0!
0#
1$
#20000
1!
0"
#25000
0!
1"
#30000
1!
0"
#35000
1"
1#
0$
#40000
0!
0#
1$
#45000
1!
1#
0$
#50000
0"
#55000
1"
#60000
0!
0#
1$
#70000
1!
0"
#75000
0!
#80000
1"
#85000
1!
1#
0$
#90000
0"
#95000
0!
#100000
1"
0#
1$
#105000
0"
#110000
1"
#115000
1!
1#
0$
#120000
0!
0#
1$
#125000
0"
#145000
1"
#150000
1!
1#
0$
#165000
0!
0#
1$
#170000
1!
0"
#175000
1"
1#
0$
#180000
0!
0"
#185000
1!
1"
#190000
0!
0#
1$
#195000
0"
#200000
1!
#205000
0!
1"
#210000
1!
0"
#220000
0!
1"
#225000
1!
1#
0$
#235000
0"
#245000
0!
1"
0#
1$
#250000
1!
1#
0$
#255000
0!
0#
1$
#270000
1!
0"
#275000
1"
1#
0$
#285000
0!
0"
#290000
1!
1"
#300000
0!
0#
1$
#305000
1!
1#
0$
#310000
0!
0#
1$
#325000
0"
#330000
1!
1"
1#
0$
#340000
0!
0"
#345000
1!
1"
#350000
0"
#360000
1"
#365000
0!
0#
1$
#370000
1!
1#
0$
#375000
0!
0"
#380000
1"
0#
1$
#385000
0"
#390000
1"
#400000
1!
1#
0$
#405000
0!
0"
#410000
1!
1"
#415000
0"
#420000
1"
#425000
0!
0#
1$
#435000
0"
#440000
1!
#455000
0!
1"
#460000
1!
0"
#465000
1"
1#
0$
#470000
0!
0#
1$
#475000
1!
1#
0$
#480000
0!
0#
1$
#495000
0"
#505000
1"
#510000
1!
0"
#520000
1"
1#
0$
#525000
0!
0#
1$
#530000
1!
1#
0$
#535000
0!
0"
#540000
1"
0#
1$
#545000
0"
#550000
1"
#555000
1!
0"
#560000
0!
1"
#565000
1!
0"
#570000
0!
1"
#575000
0"
#590000
1!
1"
1#
0$
#595000
0!
0"
#600000
1"
0#
1$
#605000
0"
#615000
1"
#620000
1!
1#
0$
#630000
0"
#635000
0!
1"
0#
1$
#640000
1!
1#
0$
#650000
0"
#655000
0!
1"
0#
1$
#675000
0"
#680000
1!
1"
1#
0$
#685000
0!
0#
1$
#690000
1!
0"
#695000
1"
1#
0$
#710000
0!
0#
1$
#715000
0"
#720000
1!
1"
1#
0$
#725000
0!
0"
#735000
1!
1"
#745000
0"
#750000
0!
1"
0#
1$
#760000
1!
1#
0$
#765000
0!
0"
#770000
1"
0#
1$
#775000
0"
#780000
1!
1"
1#
0$
#785000
0!
0#
1$
#790000
1!
1#
0$
#795000
0"
#800000
0!
#810000
1!
#815000
1"
#820000
0"
#825000
0!
1"
0#
1$
#835000
1!
1#
0$
#840000
0"
#845000
0!
1"
0#
1$
#850000
0"
#860000
1!
#865000
0!
1"
#870000
1!
1#
0$
#875000
0!
0"
#885000
1"
0#
1$
#890000
1!
1#
0$
#895000
0"
#900000
0!
#905000
1"
0#
1$
#910000
0"
#920000
1!
1"
1#
0$
#925000
0"
#930000
1"
#935000
0!
0"
#940000
1"
0#
1$
#945000
1!
0"
#955000
0!
1"
#960000
1!
1#
0$
#965000
0!
0#
1$
